{
  "version": "v4",
  "repo": "borisyankov/DefinitelyTyped",
  "ref": "master",
  "path": "typings",
  "bundle": "typings/tsd.d.ts",
  "installed": {
    "jquery/jquery.d.ts": {
      "commit": "8f081073e6cb416f901b272810d8b04d6e01c9e0"
    },
    "requirejs/require.d.ts": {
      "commit": "8f081073e6cb416f901b272810d8b04d6e01c9e0"
    },
    "underscore/underscore.d.ts": {
      "commit": "8f081073e6cb416f901b272810d8b04d6e01c9e0"
    },
    "angularjs/angular.d.ts": {
      "commit": "af76bf46025371c760d8fe8c03cf874428da6124"
    },
    "angularjs/angular-route.d.ts": {
      "commit": "a461a243e2e09b213bc49d12650f80d81047576d"
    },
    "angular-translate/angular-translate.d.ts": {
      "commit": "ebc69904eb78f94030d5d517b42db20867f679c0"
    }
  }
}
